<?xml version="1.0" encoding="UTF-8" standalone="no"?>
<!-- Created with Inkscape (http://www.inkscape.org/) -->

<svg
   xmlns:dc="http://purl.org/dc/elements/1.1/"
   xmlns:cc="http://creativecommons.org/ns#"
   xmlns:rdf="http://www.w3.org/1999/02/22-rdf-syntax-ns#"
   xmlns:svg="http://www.w3.org/2000/svg"
   xmlns="http://www.w3.org/2000/svg"
   xmlns:xlink="http://www.w3.org/1999/xlink"
   xmlns:sodipodi="http://sodipodi.sourceforge.net/DTD/sodipodi-0.dtd"
   xmlns:inkscape="http://www.inkscape.org/namespaces/inkscape"
   inkscape:export-ydpi="90.000000"
   inkscape:export-xdpi="90.000000"
   width="219"
   height="219"
   id="svg11300"
   sodipodi:version="0.32"
   inkscape:version="0.48.4 r9939"
   sodipodi:docname="gvim.svg"
   inkscape:output_extension="org.inkscape.output.svg.inkscape"
   version="1.0"
   style="display:inline;enable-background:new"
   inkscape:export-filename="/home/sam/moka-next-template.png">
  <sodipodi:namedview
     stroke="#ef2929"
     fill="#f57900"
     id="base"
     pagecolor="#000000"
     bordercolor="#666666"
     borderopacity="0.25490196"
     inkscape:pageopacity="0"
     inkscape:pageshadow="2"
     inkscape:zoom="1"
     inkscape:cx="140.5"
     inkscape:cy="175.5"
     inkscape:current-layer="layer6"
     showgrid="false"
     inkscape:grid-bbox="true"
     inkscape:document-units="px"
     inkscape:showpageshadow="false"
     inkscape:window-width="1855"
     inkscape:window-height="1056"
     inkscape:window-x="65"
     inkscape:window-y="24"
     width="400px"
     height="300px"
     inkscape:snap-nodes="true"
     inkscape:snap-bbox="true"
     gridtolerance="10000"
     inkscape:object-nodes="true"
     inkscape:snap-grids="true"
     showguides="true"
     inkscape:guide-bbox="true"
     inkscape:window-maximized="1"
     inkscape:bbox-nodes="true"
     inkscape:bbox-paths="true"
     inkscape:snap-bbox-edge-midpoints="true"
     inkscape:snap-bbox-midpoints="true"
     fit-margin-top="0"
     fit-margin-left="0"
     fit-margin-right="0"
     fit-margin-bottom="0">
    <inkscape:grid
       spacingy="1px"
       spacingx="1px"
       id="grid5883"
       type="xygrid"
       enabled="true"
       visible="true"
       empspacing="4"
       snapvisiblegridlinesonly="true"
       dotted="false"
       color="#000000"
       opacity="0.1254902"
       empcolor="#203ef3"
       empopacity="0.36470588"
       originx="-34.5px"
       originy="-34.5px" />
    <inkscape:grid
       type="xygrid"
       id="grid11592"
       empspacing="8"
       visible="true"
       enabled="false"
       spacingx="0.5px"
       spacingy="0.5px"
       color="#ff0000"
       opacity="0.1254902"
       empcolor="#ff0000"
       empopacity="0.25098039"
       snapvisiblegridlinesonly="true"
       dotted="true"
       originx="-34.5px"
       originy="-34.5px" />
  </sodipodi:namedview>
  <defs
     id="defs3">
    <linearGradient
       inkscape:collect="always"
       xlink:href="#outerBackgroundGradient-86"
       id="linearGradient5576"
       gradientUnits="userSpaceOnUse"
       gradientTransform="matrix(0,-1,1,0,-12,300)"
       x1="35"
       y1="156"
       x2="253"
       y2="156" />
    <linearGradient
       inkscape:collect="always"
       xlink:href="#outerBackgroundGradient-86"
       id="linearGradient5578"
       gradientUnits="userSpaceOnUse"
       gradientTransform="matrix(0,-1,1,0,276,572)"
       x1="417"
       y1="148"
       x2="431"
       y2="148" />
    <linearGradient
       inkscape:collect="always"
       xlink:href="#outerBackgroundGradient-86"
       id="linearGradient5580"
       gradientUnits="userSpaceOnUse"
       gradientTransform="matrix(0,-1,1,0,316,540)"
       x1="418"
       y1="112"
       x2="438"
       y2="112" />
    <linearGradient
       inkscape:collect="always"
       xlink:href="#outerBackgroundGradient-86"
       id="linearGradient5582"
       gradientUnits="userSpaceOnUse"
       gradientTransform="matrix(0,-1,1,0,364,500)"
       x1="418"
       y1="68"
       x2="446"
       y2="68" />
    <linearGradient
       inkscape:collect="always"
       xlink:href="#outerBackgroundGradient-86"
       id="linearGradient5584"
       gradientUnits="userSpaceOnUse"
       gradientTransform="matrix(0,-1,1,0,68,556)"
       x1="292"
       y1="244"
       x2="332"
       y2="244" />
    <linearGradient
       inkscape:collect="always"
       xlink:href="#outerBackgroundGradient-86"
       id="linearGradient5586"
       gradientUnits="userSpaceOnUse"
       gradientTransform="matrix(0,-1,1,0,260,412)"
       x1="293"
       y1="76"
       x2="379"
       y2="76" />
    <linearGradient
       inkscape:collect="always"
       xlink:href="#outerBackgroundGradient-86"
       id="linearGradient5588"
       gradientUnits="userSpaceOnUse"
       gradientTransform="matrix(0,-1,1,0,148,492)"
       x1="291"
       y1="172"
       x2="349"
       y2="172" />
    <linearGradient
       id="linearGradient3519">
      <stop
         offset="0"
         style="stop-color:#ffffff;stop-opacity:1"
         id="stop3521" />
      <stop
         offset="1"
         style="stop-color:#cfd4d6;stop-opacity:1;"
         id="stop3523" />
    </linearGradient>
    <linearGradient
       id="outerBackgroundGradient-8">
      <stop
         style="stop-color:#6694c6;stop-opacity:1;"
         offset="0"
         id="stop3864-8-6-99" />
      <stop
         style="stop-color:#96beea;stop-opacity:1;"
         offset="1"
         id="stop3866-9-1-14" />
    </linearGradient>
    <clipPath
       clipPathUnits="userSpaceOnUse"
       id="clipPath3861">
      <path
         d="m 144.00149,83.848805 c -44.164869,0 -80.381087,29.743555 -79.998488,66.334715 0.557476,53.87363 68.581098,73.25013 98.534728,64.26175 18.53624,6.07952 23.10984,13.75792 50.28704,13.70566 C 197.07593,217.78613 197.3926,211.46444 197.26483,200.26348 213.36689,188.13422 224,169.62117 224,150.18352 224,113.59036 188.16636,83.848806 144.00149,83.848805 z"
         style="fill:url(#linearGradient3865);fill-opacity:1;stroke:none"
         id="path3863"
         inkscape:connector-curvature="0" />
    </clipPath>
    <linearGradient
       inkscape:collect="always"
       xlink:href="#outerBackgroundGradient"
       id="linearGradient3876"
       gradientUnits="userSpaceOnUse"
       gradientTransform="translate(0,-4)"
       x1="272"
       y1="288"
       x2="272"
       y2="32" />
    <linearGradient
       id="outerBackgroundGradient">
      <stop
         style="stop-color:#7cab4d;stop-opacity:1;"
         offset="0"
         id="stop3864-8-6" />
      <stop
         style="stop-color:#aedc88;stop-opacity:1;"
         offset="1"
         id="stop3866-9-1" />
    </linearGradient>
    <linearGradient
       id="linearGradient5200">
      <stop
         style="stop-color:#000000;stop-opacity:1;"
         offset="0"
         id="stop5202" />
      <stop
         style="stop-color:#1b1b1b;stop-opacity:1;"
         offset="1"
         id="stop5204" />
    </linearGradient>
    <linearGradient
       id="linearGradient5247">
      <stop
         style="stop-color:#000000;stop-opacity:1;"
         offset="0"
         id="stop5249" />
      <stop
         style="stop-color:#1b1b1b;stop-opacity:1;"
         offset="1"
         id="stop5251" />
    </linearGradient>
    <linearGradient
       id="linearGradient5254">
      <stop
         style="stop-color:#000000;stop-opacity:1;"
         offset="0"
         id="stop5256" />
      <stop
         style="stop-color:#1b1b1b;stop-opacity:1;"
         offset="1"
         id="stop5258" />
    </linearGradient>
    <linearGradient
       id="linearGradient5261">
      <stop
         style="stop-color:#000000;stop-opacity:1;"
         offset="0"
         id="stop5263" />
      <stop
         style="stop-color:#1b1b1b;stop-opacity:1;"
         offset="1"
         id="stop5265" />
    </linearGradient>
    <linearGradient
       id="linearGradient5268">
      <stop
         style="stop-color:#000000;stop-opacity:1;"
         offset="0"
         id="stop5270" />
      <stop
         style="stop-color:#1b1b1b;stop-opacity:1;"
         offset="1"
         id="stop5272" />
    </linearGradient>
    <linearGradient
       id="linearGradient5275">
      <stop
         style="stop-color:#000000;stop-opacity:1;"
         offset="0"
         id="stop5277" />
      <stop
         style="stop-color:#1b1b1b;stop-opacity:1;"
         offset="1"
         id="stop5279" />
    </linearGradient>
    <linearGradient
       id="linearGradient5282">
      <stop
         style="stop-color:#000000;stop-opacity:1;"
         offset="0"
         id="stop5284" />
      <stop
         style="stop-color:#1b1b1b;stop-opacity:1;"
         offset="1"
         id="stop5286" />
    </linearGradient>
    <linearGradient
       inkscape:collect="always"
       xlink:href="#outerBackgroundGradient-6"
       id="linearGradient3876-1"
       gradientUnits="userSpaceOnUse"
       gradientTransform="translate(0,-4)"
       x1="272"
       y1="288"
       x2="272"
       y2="32" />
    <linearGradient
       id="outerBackgroundGradient-6">
      <stop
         style="stop-color:#0493d5;stop-opacity:1;"
         offset="0"
         id="stop3864-8-6-6" />
      <stop
         style="stop-color:#39b4ed;stop-opacity:1;"
         offset="1"
         id="stop3866-9-1-9" />
    </linearGradient>
    <linearGradient
       id="linearGradient3707">
      <stop
         style="stop-color:#595553;stop-opacity:1"
         offset="0"
         id="stop3709" />
      <stop
         style="stop-color:#2f2a27;stop-opacity:1"
         offset="1"
         id="stop3711" />
    </linearGradient>
    <linearGradient
       id="linearGradient3719">
      <stop
         style="stop-color:#ffffff;stop-opacity:1;"
         offset="0"
         id="stop3721" />
      <stop
         id="stop3727"
         offset="0.78125"
         style="stop-color:#ffffff;stop-opacity:1;" />
      <stop
         style="stop-color:#ffffff;stop-opacity:0;"
         offset="1"
         id="stop3723" />
    </linearGradient>
    <linearGradient
       id="linearGradient5340">
      <stop
         style="stop-color:#595553;stop-opacity:1"
         offset="0"
         id="stop5342" />
      <stop
         style="stop-color:#2f2a27;stop-opacity:1"
         offset="1"
         id="stop5344" />
    </linearGradient>
    <linearGradient
       id="linearGradient5347">
      <stop
         style="stop-color:#ffffff;stop-opacity:1;"
         offset="0"
         id="stop5349" />
      <stop
         id="stop5351"
         offset="0.78125"
         style="stop-color:#ffffff;stop-opacity:1;" />
      <stop
         style="stop-color:#ffffff;stop-opacity:0;"
         offset="1"
         id="stop5353" />
    </linearGradient>
    <linearGradient
       id="linearGradient5363">
      <stop
         style="stop-color:#595553;stop-opacity:1"
         offset="0"
         id="stop5365" />
      <stop
         style="stop-color:#2f2a27;stop-opacity:1"
         offset="1"
         id="stop5367" />
    </linearGradient>
    <linearGradient
       id="linearGradient5370">
      <stop
         style="stop-color:#ffffff;stop-opacity:1;"
         offset="0"
         id="stop5372" />
      <stop
         id="stop5374"
         offset="0.78125"
         style="stop-color:#ffffff;stop-opacity:1;" />
      <stop
         style="stop-color:#ffffff;stop-opacity:0;"
         offset="1"
         id="stop5376" />
    </linearGradient>
    <linearGradient
       id="linearGradient5386">
      <stop
         style="stop-color:#595553;stop-opacity:1"
         offset="0"
         id="stop5388" />
      <stop
         style="stop-color:#2f2a27;stop-opacity:1"
         offset="1"
         id="stop5390" />
    </linearGradient>
    <linearGradient
       id="linearGradient5393">
      <stop
         style="stop-color:#ffffff;stop-opacity:1;"
         offset="0"
         id="stop5395" />
      <stop
         id="stop5397"
         offset="0.78125"
         style="stop-color:#ffffff;stop-opacity:1;" />
      <stop
         style="stop-color:#ffffff;stop-opacity:0;"
         offset="1"
         id="stop5399" />
    </linearGradient>
    <linearGradient
       id="linearGradient5409">
      <stop
         style="stop-color:#595553;stop-opacity:1"
         offset="0"
         id="stop5411" />
      <stop
         style="stop-color:#2f2a27;stop-opacity:1"
         offset="1"
         id="stop5413" />
    </linearGradient>
    <linearGradient
       id="linearGradient5416">
      <stop
         style="stop-color:#ffffff;stop-opacity:1;"
         offset="0"
         id="stop5418" />
      <stop
         id="stop5420"
         offset="0.78125"
         style="stop-color:#ffffff;stop-opacity:1;" />
      <stop
         style="stop-color:#ffffff;stop-opacity:0;"
         offset="1"
         id="stop5422" />
    </linearGradient>
    <linearGradient
       id="linearGradient5432">
      <stop
         style="stop-color:#595553;stop-opacity:1"
         offset="0"
         id="stop5434" />
      <stop
         style="stop-color:#2f2a27;stop-opacity:1"
         offset="1"
         id="stop5436" />
    </linearGradient>
    <linearGradient
       id="linearGradient5439">
      <stop
         style="stop-color:#ffffff;stop-opacity:1;"
         offset="0"
         id="stop5441" />
      <stop
         id="stop5443"
         offset="0.78125"
         style="stop-color:#ffffff;stop-opacity:1;" />
      <stop
         style="stop-color:#ffffff;stop-opacity:0;"
         offset="1"
         id="stop5445" />
    </linearGradient>
    <linearGradient
       id="linearGradient5455">
      <stop
         style="stop-color:#595553;stop-opacity:1"
         offset="0"
         id="stop5457" />
      <stop
         style="stop-color:#2f2a27;stop-opacity:1"
         offset="1"
         id="stop5459" />
    </linearGradient>
    <linearGradient
       id="linearGradient5462">
      <stop
         style="stop-color:#ffffff;stop-opacity:1;"
         offset="0"
         id="stop5464" />
      <stop
         id="stop5466"
         offset="0.78125"
         style="stop-color:#ffffff;stop-opacity:1;" />
      <stop
         style="stop-color:#ffffff;stop-opacity:0;"
         offset="1"
         id="stop5468" />
    </linearGradient>
    <linearGradient
       inkscape:collect="always"
       xlink:href="#outerBackgroundGradient-86"
       id="linearGradient3876-9"
       gradientUnits="userSpaceOnUse"
       gradientTransform="translate(0,-4)"
       x1="272"
       y1="288"
       x2="272"
       y2="32" />
    <linearGradient
       id="outerBackgroundGradient-86">
      <stop
         style="stop-color:#0b700b;stop-opacity:1;"
         offset="0"
         id="stop3864-8-6-9" />
      <stop
         style="stop-color:#289e28;stop-opacity:1;"
         offset="1"
         id="stop3866-9-1-4" />
    </linearGradient>
    <linearGradient
       y2="-62.225395"
       x2="16.970562"
       y1="22.844667"
       x1="102.04063"
       gradientTransform="matrix(0.22500001,0,0,0.22500001,366.56416,-223.44575)"
       gradientUnits="userSpaceOnUse"
       id="linearGradient4098"
       xlink:href="#linearGradient3867"
       inkscape:collect="always" />
    <linearGradient
       id="linearGradient3867">
      <stop
         style="stop-color:#000000;stop-opacity:1;"
         offset="0"
         id="stop3869" />
      <stop
         style="stop-color:#000000;stop-opacity:0;"
         offset="1"
         id="stop3871" />
    </linearGradient>
    <linearGradient
       inkscape:collect="always"
       xlink:href="#linearGradient3867"
       id="linearGradient3858"
       gradientUnits="userSpaceOnUse"
       gradientTransform="matrix(2,0,0,2,76.367698,8.485266)"
       x1="102.04063"
       y1="22.844667"
       x2="16.970562"
       y2="-62.225395" />
    <linearGradient
       id="linearGradient5588-1">
      <stop
         style="stop-color:#000000;stop-opacity:1;"
         offset="0"
         id="stop5590" />
      <stop
         style="stop-color:#000000;stop-opacity:0;"
         offset="1"
         id="stop5592" />
    </linearGradient>
    <linearGradient
       inkscape:collect="always"
       xlink:href="#linearGradient3867"
       id="linearGradient3884"
       gradientUnits="userSpaceOnUse"
       gradientTransform="matrix(2,0,0,2,76.367698,8.485266)"
       x1="102.04063"
       y1="22.844667"
       x2="16.970562"
       y2="-62.225395" />
    <linearGradient
       id="linearGradient5595">
      <stop
         style="stop-color:#000000;stop-opacity:1;"
         offset="0"
         id="stop5597" />
      <stop
         style="stop-color:#000000;stop-opacity:0;"
         offset="1"
         id="stop5599" />
    </linearGradient>
    <linearGradient
       inkscape:collect="always"
       xlink:href="#linearGradient3867"
       id="linearGradient3906"
       gradientUnits="userSpaceOnUse"
       gradientTransform="matrix(2,0,0,2,76.367698,8.485266)"
       x1="102.04063"
       y1="22.844667"
       x2="16.970562"
       y2="-62.225395" />
    <linearGradient
       id="linearGradient5602">
      <stop
         style="stop-color:#000000;stop-opacity:1;"
         offset="0"
         id="stop5604" />
      <stop
         style="stop-color:#000000;stop-opacity:0;"
         offset="1"
         id="stop5606" />
    </linearGradient>
    <linearGradient
       inkscape:collect="always"
       xlink:href="#linearGradient3867"
       id="linearGradient3926"
       gradientUnits="userSpaceOnUse"
       gradientTransform="matrix(2,0,0,2,76.367698,8.485266)"
       x1="102.04063"
       y1="22.844667"
       x2="16.970562"
       y2="-62.225395" />
    <linearGradient
       id="linearGradient5609">
      <stop
         style="stop-color:#000000;stop-opacity:1;"
         offset="0"
         id="stop5611" />
      <stop
         style="stop-color:#000000;stop-opacity:0;"
         offset="1"
         id="stop5613" />
    </linearGradient>
    <linearGradient
       inkscape:collect="always"
       xlink:href="#linearGradient3867"
       id="linearGradient3959"
       gradientUnits="userSpaceOnUse"
       gradientTransform="matrix(2,0,0,2,76.367698,8.485266)"
       x1="102.04063"
       y1="22.844667"
       x2="16.970562"
       y2="-62.225395" />
    <linearGradient
       id="linearGradient5616">
      <stop
         style="stop-color:#000000;stop-opacity:1;"
         offset="0"
         id="stop5618" />
      <stop
         style="stop-color:#000000;stop-opacity:0;"
         offset="1"
         id="stop5620" />
    </linearGradient>
    <linearGradient
       inkscape:collect="always"
       xlink:href="#linearGradient3867"
       id="linearGradient3973"
       gradientUnits="userSpaceOnUse"
       gradientTransform="matrix(2,0,0,2,76.367698,8.485266)"
       x1="102.04063"
       y1="22.844667"
       x2="16.970562"
       y2="-62.225395" />
    <linearGradient
       id="linearGradient5623">
      <stop
         style="stop-color:#000000;stop-opacity:1;"
         offset="0"
         id="stop5625" />
      <stop
         style="stop-color:#000000;stop-opacity:0;"
         offset="1"
         id="stop5627" />
    </linearGradient>
    <linearGradient
       inkscape:collect="always"
       xlink:href="#linearGradient3867"
       id="linearGradient8609"
       gradientUnits="userSpaceOnUse"
       gradientTransform="matrix(2,0,0,2,76.367698,8.485266)"
       x1="102.04063"
       y1="22.844667"
       x2="16.970562"
       y2="-62.225395" />
    <linearGradient
       inkscape:collect="always"
       xlink:href="#linearGradient3867"
       id="linearGradient8613"
       gradientUnits="userSpaceOnUse"
       gradientTransform="matrix(0.82500001,0,0,0.82500001,235.3252,-183.84777)"
       x1="102.04063"
       y1="22.844667"
       x2="16.970562"
       y2="-62.225395" />
    <linearGradient
       inkscape:collect="always"
       xlink:href="#linearGradient3867"
       id="linearGradient8617"
       gradientUnits="userSpaceOnUse"
       gradientTransform="matrix(0.41249999,0,0,0.41249999,365.14998,-48.083264)"
       x1="102.04063"
       y1="22.844667"
       x2="16.970562"
       y2="-62.225395" />
    <linearGradient
       inkscape:collect="always"
       xlink:href="#linearGradient3867"
       id="linearGradient8621"
       gradientUnits="userSpaceOnUse"
       gradientTransform="matrix(0.25000001,0,0,0.25000001,336.58285,-257.38687)"
       x1="102.04063"
       y1="22.844667"
       x2="16.970562"
       y2="-62.225395" />
    <linearGradient
       inkscape:collect="always"
       xlink:href="#linearGradient3867"
       id="linearGradient8625"
       gradientUnits="userSpaceOnUse"
       gradientTransform="matrix(0.50000001,0,0,0.50000001,313.95545,-104.65181)"
       x1="102.04063"
       y1="22.844667"
       x2="16.970562"
       y2="-62.225395" />
    <linearGradient
       inkscape:collect="always"
       xlink:href="#linearGradient3867"
       id="linearGradient8629"
       gradientUnits="userSpaceOnUse"
       gradientTransform="matrix(0.15,0,0,0.15,394.42418,-195.30289)"
       x1="102.04063"
       y1="22.844667"
       x2="16.970562"
       y2="-62.225395" />
  </defs>
  <metadata
     id="metadata4">
    <rdf:RDF>
      <cc:Work
         rdf:about="">
        <dc:format>image/svg+xml</dc:format>
        <dc:type
           rdf:resource="http://purl.org/dc/dcmitype/StillImage" />
        <dc:creator>
          <cc:Agent>
            <dc:title>Sam Hewitt</dc:title>
          </cc:Agent>
        </dc:creator>
        <dc:source />
        <cc:license
           rdf:resource="" />
        <dc:title></dc:title>
        <dc:subject>
          <rdf:Bag />
        </dc:subject>
        <dc:date />
        <dc:rights>
          <cc:Agent>
            <dc:title />
          </cc:Agent>
        </dc:rights>
        <dc:publisher>
          <cc:Agent>
            <dc:title />
          </cc:Agent>
        </dc:publisher>
        <dc:identifier />
        <dc:relation />
        <dc:language />
        <dc:coverage />
        <dc:description />
        <dc:contributor>
          <cc:Agent>
            <dc:title />
          </cc:Agent>
        </dc:contributor>
      </cc:Work>
      <cc:Work
         rdf:about="">
        <dc:format>image/svg+xml</dc:format>
        <dc:type
           rdf:resource="http://purl.org/dc/dcmitype/StillImage" />
      </cc:Work>
    </rdf:RDF>
  </metadata>
  <g
     style="display:inline"
     inkscape:groupmode="layer"
     inkscape:label="Icon"
     id="layer1"
     transform="translate(-34.5,-46.5)">
    <g
       style="display:none"
       inkscape:label="Baseplate"
       id="layer7"
       inkscape:groupmode="layer">
      <text
         y="19.745117"
         xml:space="preserve"
         x="15.006836"
         style="font-size:18px;font-style:normal;font-variant:normal;font-weight:normal;font-stretch:normal;fill:#000000;fill-opacity:1;stroke:none;display:inline;enable-background:new;font-family:DejaVu Sans;-inkscape-font-specification:DejaVu Sans"
         inkscape:label="context"
         id="context"><tspan
           style="font-style:normal;font-variant:normal;font-weight:normal;font-stretch:normal;font-family:DejaVu Sans;-inkscape-font-specification:DejaVu Sans"
           y="19.745117"
           x="15.006836"
           sodipodi:role="line"
           id="tspan3933">apps</tspan></text>
      <text
         y="19.745117"
         xml:space="preserve"
         x="122.48828"
         style="font-size:18px;font-style:normal;font-variant:normal;font-weight:bold;font-stretch:normal;text-align:start;line-height:125%;writing-mode:lr-tb;text-anchor:start;fill:#000000;fill-opacity:1;stroke:none;display:inline;enable-background:new;font-family:DejaVu Sans;-inkscape-font-specification:DejaVu Sans Bold"
         sodipodi:linespacing="125%"
         inkscape:label="icon-name"
         id="icon-name"
         inkscape:transform-center-y="-8.7802734"><tspan
           style="font-size:18px;font-style:normal;font-variant:normal;font-weight:bold;font-stretch:normal;font-family:DejaVu Sans;-inkscape-font-specification:DejaVu Sans Bold"
           y="19.745117"
           x="122.48828"
           sodipodi:role="line"
           id="tspan3937">gvim</tspan></text>
      <rect
         style="fill:#eeeeec;fill-opacity:1;fill-rule:nonzero;stroke:none;stroke-width:2;marker:none;visibility:visible;display:inline;overflow:visible;enable-background:accumulate"
         id="rect16x16"
         width="16"
         height="16"
         x="416"
         y="140"
         inkscape:label="16x16" />
      <rect
         style="fill:#d4d4d4;fill-opacity:1;fill-rule:nonzero;stroke:none;stroke-width:2;marker:none;visibility:visible;display:inline;overflow:visible;enable-background:accumulate"
         id="rect24x24"
         width="24"
         height="24"
         x="416"
         y="100"
         inkscape:label="24x24" />
      <rect
         style="fill:#eeeeec;fill-opacity:1;fill-rule:nonzero;stroke:none;stroke-width:2;marker:none;visibility:visible;display:inline;overflow:visible;enable-background:accumulate"
         id="rect32x32"
         width="32"
         height="32"
         x="416"
         y="52"
         inkscape:label="32x32" />
      <rect
         inkscape:label="22x22"
         y="101"
         x="417"
         height="22"
         width="22"
         id="rect22x22"
         style="fill:#eeeeec;fill-opacity:1;fill-rule:nonzero;stroke:none;stroke-width:2;marker:none;visibility:visible;display:inline;overflow:visible;enable-background:accumulate" />
      <rect
         inkscape:label="48x48"
         y="220"
         x="288"
         height="48"
         width="48"
         id="rect48x48"
         style="fill:#eeeeec;fill-opacity:1;fill-rule:nonzero;stroke:none;stroke-width:2;marker:none;visibility:visible;display:inline;overflow:visible;enable-background:accumulate" />
      <rect
         style="fill:#eeeeec;fill-opacity:1;fill-rule:nonzero;stroke:none;stroke-width:2;marker:none;visibility:visible;display:inline;overflow:visible;enable-background:accumulate"
         id="rect256x256"
         width="256"
         height="256"
         x="16"
         y="28"
         inkscape:label="256x256" />
      <rect
         style="fill:#eeeeec;fill-opacity:1;fill-rule:nonzero;stroke:none;stroke-width:2;marker:none;visibility:visible;display:inline;overflow:visible;enable-background:accumulate"
         id="rect64x64"
         width="64"
         height="64"
         x="288"
         y="140"
         inkscape:label="64x64" />
      <rect
         style="fill:#eeeeec;fill-opacity:1;fill-rule:nonzero;stroke:none;stroke-width:2;marker:none;visibility:visible;display:inline;overflow:visible;enable-background:accumulate"
         id="rect96x96"
         width="96"
         height="96"
         x="288"
         y="28"
         inkscape:label="96x96" />
    </g>
    <g
       inkscape:groupmode="layer"
       id="layer4"
       inkscape:label="Shadow"
       style="display:inline"
       sodipodi:insensitive="true">
      <rect
         ry="50"
         y="47"
         x="34"
         height="220"
         width="220"
         id="rect4114"
         style="opacity:0.1;color:#bebebe;fill:#000000;fill-opacity:1;fill-rule:nonzero;stroke:none;stroke-width:0;marker:none;visibility:visible;display:inline;overflow:visible;enable-background:accumulate" />
      <rect
         style="opacity:0.1;color:#bebebe;fill:#000000;fill-opacity:1;fill-rule:nonzero;stroke:none;stroke-width:0;marker:none;visibility:visible;display:inline;overflow:visible;enable-background:accumulate"
         id="rect4120"
         width="30"
         height="30"
         x="417"
         y="54"
         ry="7" />
      <rect
         transform="scale(1,-1)"
         ry="9"
         y="-266"
         x="291"
         height="42"
         width="42"
         id="rect4122"
         style="opacity:0.1;color:#bebebe;fill:#000000;fill-opacity:1;fill-rule:nonzero;stroke:none;stroke-width:0;marker:none;visibility:visible;display:inline;overflow:visible;enable-background:accumulate" />
      <rect
         style="opacity:0.1;color:#bebebe;fill:#000000;fill-opacity:1;fill-rule:nonzero;stroke:none;stroke-width:0;marker:none;visibility:visible;display:inline;overflow:visible;enable-background:accumulate"
         id="rect4124"
         width="88"
         height="88"
         x="292"
         y="33"
         ry="18" />
      <rect
         ry="12.5"
         y="143"
         x="290"
         height="60"
         width="60"
         id="rect4126"
         style="opacity:0.1;color:#bebebe;fill:#000000;fill-opacity:1;fill-rule:nonzero;stroke:none;stroke-width:0;marker:none;visibility:visible;display:inline;overflow:visible;enable-background:accumulate" />
      <path
         id="path4268"
         d="m 422,101 c -2.77,0 -5,2.23 -5,5 l 0,12 c 0,2.77 2.23,5 5,5 l 12,0 c 2.77,0 5,-2.23 5,-5 l 0,-12 c 0,-2.77 -2.23,-5 -5,-5 z"
         style="opacity:0.1;color:#bebebe;fill:#000000;fill-opacity:1;fill-rule:nonzero;stroke:none;stroke-width:0;marker:none;visibility:visible;display:inline;overflow:visible;enable-background:accumulate"
         inkscape:connector-curvature="0"
         sodipodi:nodetypes="sssssssss" />
      <path
         id="path4270"
         d="m 419,140 c -1.662,0 -3,1.338 -3,3 l 0,10 c 0,1.662 1.338,3 3,3 l 10,0 c 1.662,0 3,-1.338 3,-3 l 0,-10 c 0,-1.662 -1.338,-3 -3,-3 z"
         style="opacity:0.1;color:#bebebe;fill:#000000;fill-opacity:1;fill-rule:nonzero;stroke:none;stroke-width:0;marker:none;visibility:visible;display:inline;overflow:visible;enable-background:accumulate"
         inkscape:connector-curvature="0"
         sodipodi:nodetypes="sssssssss" />
    </g>
    <g
       inkscape:groupmode="layer"
       id="layer2"
       inkscape:label="Background"
       style="display:inline">
      <path
         style="color:#bebebe;fill:url(#linearGradient5576);fill-opacity:1;fill-rule:nonzero;stroke:none;stroke-width:2;marker:none;visibility:visible;display:inline;overflow:visible;enable-background:accumulate"
         d="M 84,46.5 C 56.568735,46.5 34.5,68.568732 34.5,96 l 0,120 c 0,27.43127 22.068735,49.5 49.5,49.5 l 120,0 c 27.43127,0 49.5,-22.06873 49.5,-49.5 l 0,-120 C 253.5,68.568732 231.43127,46.5 204,46.5 l -120,0 z"
         id="path4200"
         inkscape:connector-curvature="0" />
      <path
         style="color:#bebebe;fill:url(#linearGradient5578);fill-opacity:1;fill-rule:nonzero;stroke:none;stroke-width:2;marker:none;visibility:visible;display:inline;overflow:visible;enable-background:accumulate"
         d="m 419,140.5 c -1.3844,0 -2.5,1.1156 -2.5,2.5 l 0,10 c 0,1.3844 1.1156,2.5 2.5,2.5 l 10,0 c 1.3844,0 2.5,-1.1156 2.5,-2.5 l 0,-10 c 0,-1.3844 -1.1156,-2.5 -2.5,-2.5 l -10,0 z"
         id="path4202"
         inkscape:connector-curvature="0" />
      <path
         style="color:#bebebe;fill:url(#linearGradient5580);fill-opacity:1;fill-rule:nonzero;stroke:none;stroke-width:2;marker:none;visibility:visible;display:inline;overflow:visible;enable-background:accumulate"
         d="m 422,101.5 c -2.49699,0 -4.5,2.00301 -4.5,4.5 l 0,12 c 0,2.49699 2.00301,4.5 4.5,4.5 l 12,0 c 2.49699,0 4.5,-2.00301 4.5,-4.5 l 0,-12 c 0,-2.49699 -2.00301,-4.5 -4.5,-4.5 l -12,0 z"
         id="path4204"
         inkscape:connector-curvature="0" />
      <path
         style="color:#bebebe;fill:url(#linearGradient5582);fill-opacity:1;fill-rule:nonzero;stroke:none;stroke-width:2;marker:none;visibility:visible;display:inline;overflow:visible;enable-background:accumulate"
         d="m 424,53.5 c -3.60654,0 -6.5,2.893464 -6.5,6.5 l 0,16 c 0,3.606536 2.89346,6.5 6.5,6.5 l 16,0 c 3.60654,0 6.5,-2.893464 6.5,-6.5 l 0,-16 c 0,-3.606536 -2.89346,-6.5 -6.5,-6.5 l -16,0 z"
         id="path4206"
         inkscape:connector-curvature="0" />
      <path
         style="color:#bebebe;fill:url(#linearGradient5584);fill-opacity:1;fill-rule:nonzero;stroke:none;stroke-width:2;marker:none;visibility:visible;display:inline;overflow:visible;enable-background:accumulate"
         d="m 300,223.5 c -4.71531,0 -8.5,3.78469 -8.5,8.5 l 0,24 c 0,4.71531 3.78469,8.5 8.5,8.5 l 24,0 c 4.71531,0 8.5,-3.78469 8.5,-8.5 l 0,-24 c 0,-4.71531 -3.78469,-8.5 -8.5,-8.5 l -24,0 z"
         id="path4208"
         inkscape:connector-curvature="0" />
      <path
         style="color:#bebebe;fill:url(#linearGradient5586);fill-opacity:1;fill-rule:nonzero;stroke:none;stroke-width:2;marker:none;visibility:visible;display:inline;overflow:visible;enable-background:accumulate"
         d="m 310,32.5 c -9.70255,0 -17.5,7.797452 -17.5,17.5 l 0,52 c 0,9.70255 7.79745,17.5 17.5,17.5 l 52,0 c 9.70255,0 17.5,-7.79745 17.5,-17.5 l 0,-52 c 0,-9.702548 -7.79745,-17.5 -17.5,-17.5 l -52,0 z"
         id="path4210"
         inkscape:connector-curvature="0" />
      <path
         style="color:#bebebe;fill:url(#linearGradient5588);fill-opacity:1;fill-rule:nonzero;stroke:none;stroke-width:2;marker:none;visibility:visible;display:inline;overflow:visible;enable-background:accumulate"
         d="m 302.5,142.5 c -6.65502,0 -12,5.34498 -12,12 l 0,35 c 0,6.65502 5.34498,12 12,12 l 35,0 c 6.65502,0 12,-5.34498 12,-12 l 0,-35 c 0,-6.65502 -5.34498,-12 -12,-12 l -35,0 z"
         id="path4212"
         inkscape:connector-curvature="0" />
    </g>
    <g
       inkscape:groupmode="layer"
       id="layer6"
       inkscape:label="Symbols"
       style="display:inline">
      <path
         sodipodi:nodetypes="sscssccsccccccsccccsssccsssscccccccccccccsssss"
         inkscape:connector-curvature="0"
         id="path8631"
         d="m 421.32501,105.97538 c -0.2493,0 -0.45,0.2007 -0.45,0.45 l 0,0.75235 0,0.37265 c 0,0.2493 0.2007,0.45 0.45,0.45 l 0.675,0 0,11.7 c 0.009,0.10411 0.084,0.36119 0.20388,0.47813 0.12132,0.1183 0.28959,0.1861 0.52735,0.18984 l 1.11093,0 0,0.007 c 0.2018,-0.0176 0.39983,-0.17227 0.56954,-0.34453 -0.1117,0.14456 11.9883,-12.48044 11.9883,-12.48044 l 0,-0.9 0,-0.225 c 0,-0.0935 -0.0289,-0.18133 -0.0773,-0.25312 -0.003,-0.004 -0.004,-0.01 -0.007,-0.0141 -0.0124,-0.0213 -0.0341,-0.0326 -0.0492,-0.0492 -0.02,-0.022 -0.0384,-0.0412 -0.0633,-0.0562 -0.0239,-0.0161 -0.0504,-0.0308 -0.0774,-0.0422 -0.0393,-0.0166 -0.0824,-0.0233 -0.12656,-0.0281 -0.0164,-0.002 -0.0324,-0.007 -0.0492,-0.007 l -0.10547,0 -5.12578,0 -0.39375,0 c -0.2493,0 -0.45,0.2007 -0.45,0.45 l 0,1.125 c 0,0.2493 0.2007,0.45 0.45,0.45 l 0.40078,0 c 0.0927,0.0143 0.18585,0.0248 0.28125,0.0281 0.0151,-2.2e-4 0.0302,0.005 0.0422,0.0141 0.002,0.002 0.005,0.004 0.007,0.007 0.003,0.002 0.005,0.004 0.007,0.007 0.007,0.0128 0.009,0.0279 0.007,0.0422 1.2e-4,0.002 1.2e-4,0.005 0,0.007 -0.001,0.0127 -0.006,0.0251 -0.0141,0.0352 l -4.43672,4.40859 c -0.002,0.002 -0.005,0.005 -0.007,0.007 -0.0328,0.033 -0.0991,0.0164 -0.1125,-0.0281 -0.002,-0.009 -0.002,-0.0189 0,-0.0281 l 0,-4.5 0.45,0 c 0.2493,0 0.45,-0.2007 0.45,-0.45 l 0,-1.125 c 0,-0.2493 -0.2007,-0.45 -0.45,-0.45 z"
         style="opacity:0.2;fill:#000000;fill-opacity:1;fill-rule:evenodd;stroke:none;display:inline;enable-background:new" />
      <path
         sodipodi:nodetypes="ssssccccccccssssssccccccccccsssss"
         inkscape:connector-curvature="0"
         id="path8633"
         d="m 84,94.00038 c -2.216,0 -4,1.784 -4,4 l 0,11 c 0,2.216 1.784,4 4,4 l 7,0 0,103 c 0.08,0.92543 0.40315,3.77303 1.46875,4.8125 1.0784,1.05155 2.57407,1.65425 4.6875,1.6875 l 9.875,0 0,0.0625 c 1.79378,-0.15645 3.55396,-1.5313 5.0625,-3.0625 C 111.10086,220.78537 219,109.00038 219,109.00038 l 0,-11 c 0,-2.216 -1.784,-4 -4,-4 l -51,0 c -2.216,0 -4,1.784 -4,4 l 0,11 c 0,2.216 1.784,4 4,4 l 7.15625,0 c 0.0266,0.0178 0.0448,0.0359 0.0625,0.0625 0.0622,0.11382 0.0803,0.2479 0.0625,0.375 0.001,0.0177 0.001,0.0448 0,0.0625 -0.009,0.11291 -0.0531,0.22271 -0.125,0.3125 l -39.4375,39.1875 c -0.0178,0.0178 -0.0446,0.0448 -0.0625,0.0625 -0.29156,0.29334 -0.53713,0.14555 -0.65625,-0.25 -0.0177,-0.08 -0.0177,-0.16823 0,-0.25 l 0,-39.5625 4,0 c 2.216,0 4,-1.784 4,-4 l 0,-11 c 0,-2.216 -1.784,-4 -4,-4 z"
         style="opacity:0.2;fill:#000000;fill-opacity:1;fill-rule:evenodd;stroke:none;display:inline;enable-background:new" />
      <path
         style="opacity:0.2;fill:#000000;fill-opacity:1;fill-rule:evenodd;stroke:none;display:inline;enable-background:new"
         d="m 312,51.00038 c -1.108,0 -2,0.892 -2,2 l 0,4 c 0,1.108 0.892,2 2,2 l 2.125,0 0,42.34375 c 0.033,0.38174 0.18544,1.53997 0.625,1.96875 0.44484,0.43376 1.06571,0.70503 1.9375,0.71875 l 4.0625,0 c 0.73993,-0.0645 0.47148,-0.61838 1.09375,-1.25 -0.39371,0.50953 40.97166,-40.48085 44.15625,-43.781249 0,0 1,-0.966954 1,-2.000001 l 0,-4 c 0,-0.197362 -0.041,-0.382665 -0.0937,-0.5625 -0.10584,-0.812409 -0.784,-1.4375 -1.62505,-1.4375 l -0.28125,0 -20.75,0 -0.25,0 c -1.108,0 -2,0.892 -2,2 l 0,4 c 0,1.108 0.892,2 2,2 l 3.25,0 c 3e-5,0.01031 10e-4,0.02117 0,0.03125 4.1e-4,0.0073 4.1e-4,0.02395 0,0.03125 -0.004,0.04657 -0.0328,0.08796 -0.0625,0.125 l -16.25,16.15625 c -0.007,0.0073 -0.0239,0.02395 -0.0312,0.03125 -0.12027,0.121003 -0.23211,0.06941 -0.28125,-0.09375 C 330.61805,75.24863 330,75.000381 330,75.000381 l 0,-16 2,-10e-7 c 0.46421,0 0.88008,-0.174065 1.21875,-0.4375 0.0692,-0.04679 0.12625,-0.09981 0.1875,-0.15625 0.0162,-0.0162 0.0156,-0.04575 0.0312,-0.0625 0.075,-0.07495 0.1592,-0.130631 0.21875,-0.21875 0.0589,-0.0874 0.11151,-0.18468 0.15625,-0.28125 0.009,-0.0209 0.0233,-0.04117 0.0312,-0.0625 0.0328,-0.07782 0.0396,-0.167462 0.0625,-0.25 C 333.9538,57.360205 334,57.187355 334,57.00038 l 0,-4 c 0,-0.197362 -0.041,-0.382665 -0.0937,-0.5625 -0.10584,-0.812409 -0.784,-1.4375 -1.62505,-1.4375 l -0.28125,0 -19,0 z"
         id="path8635"
         inkscape:connector-curvature="0"
         sodipodi:nodetypes="sssscccccccsscsccsssscccccccccscccccccsscsccs" />
      <path
         sodipodi:nodetypes="sssscccccccsscsccsssscccccccccscccccccsscsccs"
         inkscape:connector-curvature="0"
         id="path8637"
         d="m 300,232.00038 c -0.554,0 -1,0.446 -1,1 l 0,2 c 0,0.554 0.446,1 1,1 l 1.0625,0 0,21.17187 c 0.0165,0.19087 0.0927,0.76999 0.3125,0.98438 0.22242,0.21688 0.53285,0.35251 0.96875,0.35937 l 2.03125,0 c 0.36996,-0.0323 0.23574,-0.30919 0.54687,-0.625 -0.19685,0.25477 19.98583,-20.24042 21.57813,-21.89062 0,0 0.5,-0.48348 0.5,-1 l 0,-2 c 0,-0.0987 -0.0205,-0.19133 -0.0469,-0.28125 -0.0529,-0.40621 -0.39195,-0.71875 -0.81248,-0.71875 l -0.14062,0 -9.875,0 -0.125,0 c -0.554,0 -1,0.446 -1,1 l 0,2 c 0,0.554 0.446,1 1,1 l 1.625,0 c 10e-6,0.005 5e-4,0.0106 0,0.0156 2e-4,0.004 2e-4,0.012 0,0.0156 -0.002,0.0233 -0.0164,0.044 -0.0312,0.0625 l -8.125,8.07812 c -0.003,0.004 -0.012,0.012 -0.0156,0.0156 -0.0601,0.0605 -0.11606,0.0347 -0.14063,-0.0469 C 309.30902,244.1245 309,244.00038 309,244.00038 l 0,-8 1,0 c 0.2321,0 0.44004,-0.087 0.60937,-0.21875 0.0346,-0.0234 0.0631,-0.0499 0.0937,-0.0781 0.008,-0.008 0.008,-0.0229 0.0156,-0.0312 0.0375,-0.0375 0.0796,-0.0653 0.10938,-0.10937 0.0294,-0.0437 0.0557,-0.0923 0.0781,-0.14063 0.005,-0.0105 0.0116,-0.0206 0.0156,-0.0312 0.0164,-0.0389 0.0198,-0.0837 0.0312,-0.125 0.024,-0.0858 0.0471,-0.17226 0.0471,-0.26575 l 0,-2 c 0,-0.0987 -0.0205,-0.19133 -0.0469,-0.28125 -0.0529,-0.40621 -0.39195,-0.71875 -0.81248,-0.71875 l -0.14062,0 -9.5,0 z"
         style="opacity:0.2;fill:#000000;fill-opacity:1;fill-rule:evenodd;stroke:none;display:inline;enable-background:new" />
      <path
         inkscape:connector-curvature="0"
         style="opacity:0.2;fill:#000000;fill-opacity:1;fill-rule:evenodd;stroke:none;display:inline;enable-background:new"
         d="m 425,61.00038 c -0.554,0 -1,0.446 -1,1 l 0,1 c 0,0.554 0.446,1 1,1 l 0,12 c 0,0.554 0.446,1 1,1 l 1.53125,0 c 0.0518,-0.01929 11.10608,-11.280857 12.78125,-13 0,0 0.6875,-0.446 0.6875,-1 l 0,-1 c 0,-0.554 -0.446,-1 -1,-1 l -5,0 c -0.554,0 -1,0.446 -1,1 l 0,1 c 0,0.543137 0.42989,0.98298 0.96875,1 l -4.5,4.5 c -0.0365,0.03667 -0.45395,0.54944 -0.46875,0.5 -0.002,-0.01 0,-0.59375 0,-0.59375 l 0,-4.40625 c 0.554,0 1,-0.446 1,-1 l 0,-1 c 0,-0.554 -0.446,-1 -1,-1 l -5,0 z"
         id="path8639" />
      <path
         id="path8641"
         d="m 306,157.00038 c -1.108,0 -2,0.892 -2,2 l 0,2 c 0,1.108 0.892,2 2,2 l 0,24 c 0,1.108 0.892,2 2,2 l 3.0625,0 c 0.1036,-0.0386 22.21216,-22.56171 25.5625,-26 0,0 1.375,-0.892 1.375,-2 l 0,-2 c 0,-1.108 -0.892,-2 -2,-2 l -10,0 c -1.108,0 -2,0.892 -2,2 l 0,2 c 0,1.08627 0.85978,1.96596 1.9375,2 l -9,9 c -0.073,0.0733 -0.9079,1.09888 -0.9375,1 -0.004,-0.02 0,-1.1875 0,-1.1875 l 0,-8.8125 c 1.108,0 2,-0.892 2,-2 l 0,-2 c 0,-1.108 -0.892,-2 -2,-2 l -10,0 z"
         style="opacity:0.2;fill:#000000;fill-opacity:1;fill-rule:evenodd;stroke:none;display:inline;enable-background:new"
         inkscape:connector-curvature="0" />
      <path
         style="opacity:0.2;fill:#000000;fill-opacity:1;fill-rule:evenodd;stroke:none;display:inline;enable-background:new"
         d="m 419.46875,144.00038 c -0.2602,0 -0.46875,0.20855 -0.46875,0.46875 l 0,1.0625 c 0,0.2602 0.20855,0.46875 0.46875,0.46875 l 0.53125,0 0,7.1875 c 0,0.3324 0.26135,0.625 0.59375,0.625 l 0.9375,0 c 0.0311,-0.0116 6.9949,-6.78101 8,-7.8125 l 0,0 c 0,0 0.46875,-0.20855 0.46875,-0.46875 l 0,-1.0625 c 0,-0.2602 -0.20855,-0.46875 -0.46875,-0.46875 l -4.0625,0 c -0.2602,0 -0.46875,0.20855 -0.46875,0.46875 l 0,1.0625 c 0,0.2602 0.20855,0.46875 0.46875,0.46875 l 0.5,0 -2.6875,2.6875 c -0.0219,0.022 -0.27237,0.34216 -0.28125,0.3125 -10e-4,-0.006 0,-0.34375 0,-0.34375 l 0,-2.65625 0.53125,0 c 0.2602,0 0.46875,-0.20855 0.46875,-0.46875 l 0,-1.0625 c 0,-0.2602 -0.20855,-0.46875 -0.46875,-0.46875 z"
         id="path8643"
         inkscape:connector-curvature="0"
         sodipodi:nodetypes="sssscssccsssssssscccccsssss" />
      <rect
         transform="matrix(0.70710678,0.70710678,-0.70710678,0.70710678,0,0)"
         y="-199.54553"
         x="400.36386"
         height="8.4852791"
         width="8.4852848"
         id="rect3993"
         style="opacity:0.02000002;fill:none;stroke:#000000;stroke-width:1;stroke-miterlimit:4;stroke-opacity:1;stroke-dasharray:none;display:inline;enable-background:new" />
      <path
         style="opacity:0.05;fill:none;stroke:#000000;stroke-width:1;stroke-miterlimit:4;stroke-opacity:1;stroke-dasharray:none;display:inline;enable-background:new"
         d="M 419.46875,143 C 419.20855,143 419,143.20855 419,143.46875 l 0,1.0625 c 0,0.2602 0.20855,0.46875 0.46875,0.46875 l 0.53125,0 0,7.1875 c 0,0.3324 0.26135,0.625 0.59375,0.625 l 0.9375,0 c 0.0311,-0.0116 6.9949,-6.78101 8,-7.8125 l 0,0 c 0,0 0.46875,-0.20855 0.46875,-0.46875 l 0,-1.0625 C 430,143.20855 429.79145,143 429.53125,143 l -4.0625,0 C 425.20855,143 425,143.20855 425,143.46875 l 0,1.0625 c 0,0.2602 0.20855,0.46875 0.46875,0.46875 l 0.5,0 -2.6875,2.6875 c -0.0219,0.022 -0.27237,0.34216 -0.28125,0.3125 -10e-4,-0.006 0,-0.34375 0,-0.34375 L 423,145 l 0.53125,0 C 423.79145,145 424,144.79145 424,144.53125 l 0,-1.0625 C 424,143.20855 423.79145,143 423.53125,143 z"
         id="path3995"
         inkscape:connector-curvature="0"
         sodipodi:nodetypes="sssscssccsssssssscccccsssss" />
      <rect
         transform="matrix(0.70710678,0.70710678,-0.70710678,0.70710678,0,0)"
         y="-118.79394"
         x="333.75439"
         height="28.284262"
         width="28.284281"
         id="rect3963"
         style="opacity:0.02000002;fill:none;stroke:#000000;stroke-width:1;stroke-miterlimit:4;stroke-opacity:1;stroke-dasharray:none;display:inline;enable-background:new" />
      <path
         id="path3965"
         d="m 306,156 c -1.108,0 -2,0.892 -2,2 l 0,2 c 0,1.108 0.892,2 2,2 l 0,24 c 0,1.108 0.892,2 2,2 l 3.0625,0 c 0.1036,-0.0386 22.21216,-22.56171 25.5625,-26 0,0 1.375,-0.892 1.375,-2 l 0,-2 c 0,-1.108 -0.892,-2 -2,-2 l -10,0 c -1.108,0 -2,0.892 -2,2 l 0,2 c 0,1.08627 0.85978,1.96596 1.9375,2 l -9,9 c -0.073,0.0733 -0.9079,1.09888 -0.9375,1 -0.004,-0.02 0,-1.1875 0,-1.1875 L 316,162 c 1.108,0 2,-0.892 2,-2 l 0,-2 c 0,-1.108 -0.892,-2 -2,-2 l -10,0 z"
         style="opacity:0.05;fill:none;stroke:#000000;stroke-width:1;stroke-miterlimit:4;stroke-opacity:1;stroke-dasharray:none;display:inline;enable-background:new"
         inkscape:connector-curvature="0" />
      <rect
         style="opacity:0.02000002;fill:none;stroke:#000000;stroke-width:1;stroke-miterlimit:4;stroke-opacity:1;stroke-dasharray:none;display:inline;enable-background:new"
         id="rect3949"
         width="14.14214"
         height="14.142131"
         x="346.48233"
         y="-264.45795"
         transform="matrix(0.70710678,0.70710678,-0.70710678,0.70710678,0,0)" />
      <path
         style="opacity:0.05;fill:none;stroke:#000000;stroke-width:1;stroke-miterlimit:4;stroke-opacity:1;stroke-dasharray:none;display:inline;enable-background:new"
         d="m 425,60 c -0.554,0 -1,0.446 -1,1 l 0,1 c 0,0.554 0.446,1 1,1 l 0,12 c 0,0.554 0.446,1 1,1 l 1.53125,0 c 0.0518,-0.01929 11.10608,-11.280857 12.78125,-13 0,0 0.6875,-0.446 0.6875,-1 l 0,-1 c 0,-0.554 -0.446,-1 -1,-1 l -5,0 c -0.554,0 -1,0.446 -1,1 l 0,1 c 0,0.543137 0.42989,0.98298 0.96875,1 l -4.5,4.5 c -0.0365,0.03667 -0.45395,0.54944 -0.46875,0.5 -0.002,-0.01 0,-0.59375 0,-0.59375 L 430,63 c 0.554,0 1,-0.446 1,-1 l 0,-1 c 0,-0.554 -0.446,-1 -1,-1 l -5,0 z"
         id="path3951"
         inkscape:connector-curvature="0" />
      <rect
         style="opacity:0.02000002;fill:none;stroke:#000000;stroke-width:1;stroke-miterlimit:4;stroke-opacity:1;stroke-dasharray:none;display:inline;enable-background:new"
         id="rect3916"
         width="46.669064"
         height="46.669033"
         x="267.99347"
         y="-207.18228"
         transform="matrix(0.70710678,0.70710678,-0.70710678,0.70710678,0,0)" />
      <path
         style="opacity:0.05;fill:none;stroke:#000000;stroke-width:1;stroke-miterlimit:4;stroke-opacity:1;stroke-dasharray:none;display:inline;enable-background:new"
         d="m 312,50 c -1.108,0 -2,0.892 -2,2 l 0,4 c 0,1.108 0.892,2 2,2 l 2.125,0 0,42.34375 c 0.033,0.38174 0.18544,1.53997 0.625,1.96875 0.44484,0.43376 1.06571,0.70503 1.9375,0.71875 l 4.0625,0 c 0.73993,-0.0645 0.47148,-0.61838 1.09375,-1.25 -0.39371,0.50953 40.97166,-40.48085 44.15625,-43.781249 0,0 1,-0.966954 1,-2.000001 l 0,-4 c 0,-0.197362 -0.041,-0.382665 -0.0937,-0.5625 C 366.80046,50.625091 366.1223,50 365.28125,50 L 365,50 344.25,50 344,50 c -1.108,0 -2,0.892 -2,2 l 0,4 c 0,1.108 0.892,2 2,2 l 3.25,0 c 3e-5,0.01031 10e-4,0.02117 0,0.03125 4.1e-4,0.0073 4.1e-4,0.02395 0,0.03125 -0.004,0.04657 -0.0328,0.08796 -0.0625,0.125 l -16.25,16.15625 c -0.007,0.0073 -0.0239,0.02395 -0.0312,0.03125 -0.12027,0.121003 -0.23211,0.06941 -0.28125,-0.09375 C 330.61805,74.24825 330,74.000001 330,74.000001 l 0,-16 2,-10e-7 c 0.46421,0 0.88008,-0.174065 1.21875,-0.4375 0.0692,-0.04679 0.12625,-0.09981 0.1875,-0.15625 0.0162,-0.0162 0.0156,-0.04575 0.0312,-0.0625 0.075,-0.07495 0.1592,-0.130631 0.21875,-0.21875 0.0589,-0.0874 0.11151,-0.18468 0.15625,-0.28125 0.009,-0.0209 0.0233,-0.04117 0.0312,-0.0625 0.0328,-0.07782 0.0396,-0.167462 0.0625,-0.25 C 333.9538,56.359825 334,56.186975 334,56 l 0,-4 c 0,-0.197362 -0.041,-0.382665 -0.0937,-0.5625 C 333.80046,50.625091 333.1223,50 332.28125,50 L 332,50 313,50 z"
         id="path3918"
         inkscape:connector-curvature="0"
         sodipodi:nodetypes="sssscccccccsscsccsssscccccccccscccccccsscsccs" />
      <rect
         transform="matrix(0.70710678,0.70710678,-0.70710678,0.70710678,0,0)"
         y="-59.750519"
         x="381.4841"
         height="23.334515"
         width="23.334532"
         id="rect3910"
         style="opacity:0.02000002;fill:none;stroke:#000000;stroke-width:1;stroke-miterlimit:4;stroke-opacity:1;stroke-dasharray:none;display:inline;enable-background:new" />
      <path
         sodipodi:nodetypes="sssscccccccsscsccsssscccccccccscccccccsscsccs"
         inkscape:connector-curvature="0"
         id="path3912"
         d="m 300,231 c -0.554,0 -1,0.446 -1,1 l 0,2 c 0,0.554 0.446,1 1,1 l 1.0625,0 0,21.17187 c 0.0165,0.19087 0.0927,0.76999 0.3125,0.98438 0.22242,0.21688 0.53285,0.35251 0.96875,0.35937 l 2.03125,0 c 0.36996,-0.0323 0.23574,-0.30919 0.54687,-0.625 C 304.72502,257.14539 324.9077,236.6502 326.5,235 c 0,0 0.5,-0.48348 0.5,-1 l 0,-2 c 0,-0.0987 -0.0205,-0.19133 -0.0469,-0.28125 C 326.90023,231.31254 326.56115,231 326.14062,231 L 326,231 l -9.875,0 -0.125,0 c -0.554,0 -1,0.446 -1,1 l 0,2 c 0,0.554 0.446,1 1,1 l 1.625,0 c 10e-6,0.005 5e-4,0.0106 0,0.0156 2e-4,0.004 2e-4,0.012 0,0.0156 -0.002,0.0233 -0.0164,0.044 -0.0312,0.0625 l -8.125,8.07812 c -0.003,0.004 -0.012,0.012 -0.0156,0.0156 -0.0601,0.0605 -0.11606,0.0347 -0.14063,-0.0469 C 309.30902,243.12412 309,243 309,243 l 0,-8 1,0 c 0.2321,0 0.44004,-0.087 0.60937,-0.21875 0.0346,-0.0234 0.0631,-0.0499 0.0937,-0.0781 0.008,-0.008 0.008,-0.0229 0.0156,-0.0312 0.0375,-0.0375 0.0796,-0.0653 0.10938,-0.10937 0.0294,-0.0437 0.0557,-0.0923 0.0781,-0.14063 0.005,-0.0105 0.0116,-0.0206 0.0156,-0.0312 0.0164,-0.0389 0.0198,-0.0837 0.0312,-0.125 C 310.9769,234.17991 311,234.09349 311,234 l 0,-2 c 0,-0.0987 -0.0205,-0.19133 -0.0469,-0.28125 C 310.90023,231.31254 310.56115,231 310.14062,231 L 310,231 l -9.5,0 z"
         style="opacity:0.05;fill:none;stroke:#000000;stroke-width:1;stroke-miterlimit:4;stroke-opacity:1;stroke-dasharray:none;display:inline;enable-background:new" />
      <rect
         transform="matrix(0.70710678,0.70710678,-0.70710678,0.70710678,0,0)"
         y="-48.083241"
         x="155.56348"
         height="113.13705"
         width="113.13712"
         id="rect3874"
         style="opacity:0.02000002;fill:none;stroke:#000000;stroke-width:1;stroke-opacity:1;display:inline;enable-background:new" />
      <path
         sodipodi:nodetypes="ssssccccccccssssssccccccccccsssss"
         inkscape:connector-curvature="0"
         id="path3876"
         d="m 84,93 c -2.216,0 -4,1.784 -4,4 l 0,11 c 0,2.216 1.784,4 4,4 l 7,0 0,103 c 0.08,0.92543 0.40315,3.77303 1.46875,4.8125 1.0784,1.05155 2.57407,1.65425 4.6875,1.6875 l 9.875,0 0,0.0625 c 1.79378,-0.15645 3.55396,-1.5313 5.0625,-3.0625 C 111.10086,219.78499 219,108 219,108 l 0,-11 c 0,-2.216 -1.784,-4 -4,-4 l -51,0 c -2.216,0 -4,1.784 -4,4 l 0,11 c 0,2.216 1.784,4 4,4 l 7.15625,0 c 0.0266,0.0178 0.0448,0.0359 0.0625,0.0625 0.0622,0.11382 0.0803,0.2479 0.0625,0.375 0.001,0.0177 0.001,0.0448 0,0.0625 -0.009,0.11291 -0.0531,0.22271 -0.125,0.3125 L 131.71875,152 c -0.0178,0.0178 -0.0446,0.0448 -0.0625,0.0625 -0.29156,0.29334 -0.53713,0.14555 -0.65625,-0.25 -0.0177,-0.08 -0.0177,-0.16823 0,-0.25 L 131,112 l 4,0 c 2.216,0 4,-1.784 4,-4 l 0,-11 c 0,-2.216 -1.784,-4 -4,-4 z"
         style="opacity:0.05;fill:none;stroke:#000000;stroke-opacity:1;display:inline;enable-background:new" />
      <rect
         transform="matrix(0.70710678,0.70710678,-0.70710678,0.70710678,0,0)"
         y="-229.80971"
         x="375.47369"
         height="12.727919"
         width="12.727926"
         id="rect4150"
         style="opacity:0.4;fill:url(#linearGradient4098);fill-opacity:1;fill-rule:evenodd;stroke:none;display:inline;enable-background:new" />
      <path
         style="fill:#fefefe;fill-opacity:1;fill-rule:evenodd;stroke:none;display:inline;enable-background:new"
         d="m 421.32501,104.975 c -0.2493,0 -0.45,0.2007 -0.45,0.45 l 0,0.75235 0,0.37265 c 0,0.2493 0.2007,0.45 0.45,0.45 l 0.675,0 0,11.7 c 0.009,0.10411 0.084,0.36119 0.20388,0.47813 0.12132,0.1183 0.28959,0.1861 0.52735,0.18984 l 1.11093,0 0,0.007 c 0.2018,-0.0176 0.39983,-0.17227 0.56954,-0.34453 -0.1117,0.14456 11.9883,-12.48044 11.9883,-12.48044 l 0,-0.9 0,-0.225 c 0,-0.0935 -0.0289,-0.18133 -0.0773,-0.25312 -0.003,-0.004 -0.004,-0.01 -0.007,-0.0141 -0.0124,-0.0213 -0.0341,-0.0326 -0.0492,-0.0492 -0.02,-0.022 -0.0384,-0.0412 -0.0633,-0.0562 -0.0239,-0.0161 -0.0504,-0.0308 -0.0774,-0.0422 -0.0393,-0.0166 -0.0824,-0.0233 -0.12656,-0.0281 -0.0164,-0.002 -0.0324,-0.007 -0.0492,-0.007 l -0.10547,0 -5.12578,0 -0.39375,0 c -0.2493,0 -0.45,0.2007 -0.45,0.45 l 0,1.125 c 0,0.2493 0.2007,0.45 0.45,0.45 l 0.40078,0 c 0.0927,0.0143 0.18585,0.0248 0.28125,0.0281 0.0151,-2.2e-4 0.0302,0.005 0.0422,0.0141 0.002,0.002 0.005,0.004 0.007,0.007 0.003,0.002 0.005,0.004 0.007,0.007 0.007,0.0128 0.009,0.0279 0.007,0.0422 1.2e-4,0.002 1.2e-4,0.005 0,0.007 -0.001,0.0127 -0.006,0.0251 -0.0141,0.0352 l -4.43672,4.40859 c -0.002,0.002 -0.005,0.005 -0.007,0.007 -0.0328,0.033 -0.0991,0.0164 -0.1125,-0.0281 -0.002,-0.009 -0.002,-0.0189 0,-0.0281 l 0,-4.5 0.45,0 c 0.2493,0 0.45,-0.2007 0.45,-0.45 l 0,-1.125 c 0,-0.2493 -0.2007,-0.45 -0.45,-0.45 z"
         id="path4152"
         inkscape:connector-curvature="0"
         sodipodi:nodetypes="sscssccsccccccsccccsssccsssscccccccccccccsssss" />
      <rect
         style="opacity:0.4;fill:url(#linearGradient8609);fill-opacity:1;fill-rule:evenodd;stroke:none;display:inline;enable-background:new"
         id="rect3854"
         width="113.13712"
         height="113.13705"
         x="155.56348"
         y="-48.083241"
         transform="matrix(0.70710678,0.70710678,-0.70710678,0.70710678,0,0)" />
      <path
         style="fill:#fefefe;fill-opacity:1;fill-rule:evenodd;stroke:none;display:inline;enable-background:new"
         d="m 84,93 c -2.216,0 -4,1.784 -4,4 l 0,11 c 0,2.216 1.784,4 4,4 l 7,0 0,103 c 0.08,0.92543 0.40315,3.77303 1.46875,4.8125 1.0784,1.05155 2.57407,1.65425 4.6875,1.6875 l 9.875,0 0,0.0625 c 1.79378,-0.15645 3.55396,-1.5313 5.0625,-3.0625 C 111.10086,219.78499 219,108 219,108 l 0,-11 c 0,-2.216 -1.784,-4 -4,-4 l -51,0 c -2.216,0 -4,1.784 -4,4 l 0,11 c 0,2.216 1.784,4 4,4 l 7.15625,0 c 0.0266,0.0178 0.0448,0.0359 0.0625,0.0625 0.0622,0.11382 0.0803,0.2479 0.0625,0.375 0.001,0.0177 0.001,0.0448 0,0.0625 -0.009,0.11291 -0.0531,0.22271 -0.125,0.3125 L 131.71875,152 c -0.0178,0.0178 -0.0446,0.0448 -0.0625,0.0625 -0.29156,0.29334 -0.53713,0.14555 -0.65625,-0.25 -0.0177,-0.08 -0.0177,-0.16823 0,-0.25 L 131,112 l 4,0 c 2.216,0 4,-1.784 4,-4 l 0,-11 c 0,-2.216 -1.784,-4 -4,-4 z"
         id="path3856"
         inkscape:connector-curvature="0"
         sodipodi:nodetypes="ssssccccccccssssssccccccccccsssss" />
      <rect
         transform="matrix(0.70710678,0.70710678,-0.70710678,0.70710678,0,0)"
         y="-207.18228"
         x="267.99347"
         height="46.669033"
         width="46.669064"
         id="rect3880"
         style="opacity:0.4;fill:url(#linearGradient8613);fill-opacity:1;fill-rule:evenodd;stroke:none;display:inline;enable-background:new" />
      <path
         sodipodi:nodetypes="sssscccccccsscsccsssscccccccccscccccccsscsccs"
         inkscape:connector-curvature="0"
         id="path3882"
         d="m 312,50 c -1.108,0 -2,0.892 -2,2 l 0,4 c 0,1.108 0.892,2 2,2 l 2.125,0 0,42.34375 c 0.033,0.38174 0.18544,1.53997 0.625,1.96875 0.44484,0.43376 1.06571,0.70503 1.9375,0.71875 l 4.0625,0 c 0.73993,-0.0645 0.47148,-0.61838 1.09375,-1.25 -0.39371,0.50953 40.97166,-40.48085 44.15625,-43.781249 0,0 1,-0.966954 1,-2.000001 l 0,-4 c 0,-0.197362 -0.041,-0.382665 -0.0937,-0.5625 C 366.80046,50.625091 366.1223,50 365.28125,50 L 365,50 344.25,50 344,50 c -1.108,0 -2,0.892 -2,2 l 0,4 c 0,1.108 0.892,2 2,2 l 3.25,0 c 3e-5,0.01031 10e-4,0.02117 0,0.03125 4.1e-4,0.0073 4.1e-4,0.02395 0,0.03125 -0.004,0.04657 -0.0328,0.08796 -0.0625,0.125 l -16.25,16.15625 c -0.007,0.0073 -0.0239,0.02395 -0.0312,0.03125 -0.12027,0.121003 -0.23211,0.06941 -0.28125,-0.09375 C 330.61805,74.24825 330,74.000001 330,74.000001 l 0,-16 2,-10e-7 c 0.46421,0 0.88008,-0.174065 1.21875,-0.4375 0.0692,-0.04679 0.12625,-0.09981 0.1875,-0.15625 0.0162,-0.0162 0.0156,-0.04575 0.0312,-0.0625 0.075,-0.07495 0.1592,-0.130631 0.21875,-0.21875 0.0589,-0.0874 0.11151,-0.18468 0.15625,-0.28125 0.009,-0.0209 0.0233,-0.04117 0.0312,-0.0625 0.0328,-0.07782 0.0396,-0.167462 0.0625,-0.25 C 333.9538,56.359825 334,56.186975 334,56 l 0,-4 c 0,-0.197362 -0.041,-0.382665 -0.0937,-0.5625 C 333.80046,50.625091 333.1223,50 332.28125,50 L 332,50 313,50 z"
         style="fill:#fefefe;fill-opacity:1;fill-rule:evenodd;stroke:none;display:inline;enable-background:new" />
      <rect
         style="opacity:0.4;fill:url(#linearGradient8617);fill-opacity:1;fill-rule:evenodd;stroke:none;display:inline;enable-background:new"
         id="rect3902-4"
         width="23.334532"
         height="23.334515"
         x="381.4841"
         y="-59.750519"
         transform="matrix(0.70710678,0.70710678,-0.70710678,0.70710678,0,0)" />
      <path
         style="fill:#fefefe;fill-opacity:1;fill-rule:evenodd;stroke:none;display:inline;enable-background:new"
         d="m 300,231 c -0.554,0 -1,0.446 -1,1 l 0,2 c 0,0.554 0.446,1 1,1 l 1.0625,0 0,21.17187 c 0.0165,0.19087 0.0927,0.76999 0.3125,0.98438 0.22242,0.21688 0.53285,0.35251 0.96875,0.35937 l 2.03125,0 c 0.36996,-0.0323 0.23574,-0.30919 0.54687,-0.625 C 304.72502,257.14539 324.9077,236.6502 326.5,235 c 0,0 0.5,-0.48348 0.5,-1 l 0,-2 c 0,-0.0987 -0.0205,-0.19133 -0.0469,-0.28125 C 326.90023,231.31254 326.56115,231 326.14062,231 L 326,231 l -9.875,0 -0.125,0 c -0.554,0 -1,0.446 -1,1 l 0,2 c 0,0.554 0.446,1 1,1 l 1.625,0 c 10e-6,0.005 5e-4,0.0106 0,0.0156 2e-4,0.004 2e-4,0.012 0,0.0156 -0.002,0.0233 -0.0164,0.044 -0.0312,0.0625 l -8.125,8.07812 c -0.003,0.004 -0.012,0.012 -0.0156,0.0156 -0.0601,0.0605 -0.11606,0.0347 -0.14063,-0.0469 C 309.30902,243.12412 309,243 309,243 l 0,-8 1,0 c 0.2321,0 0.44004,-0.087 0.60937,-0.21875 0.0346,-0.0234 0.0631,-0.0499 0.0937,-0.0781 0.008,-0.008 0.008,-0.0229 0.0156,-0.0312 0.0375,-0.0375 0.0796,-0.0653 0.10938,-0.10937 0.0294,-0.0437 0.0557,-0.0923 0.0781,-0.14063 0.005,-0.0105 0.0116,-0.0206 0.0156,-0.0312 0.0164,-0.0389 0.0198,-0.0837 0.0312,-0.125 C 310.9769,234.17991 311,234.09349 311,234 l 0,-2 c 0,-0.0987 -0.0205,-0.19133 -0.0469,-0.28125 C 310.90023,231.31254 310.56115,231 310.14062,231 L 310,231 l -9.5,0 z"
         id="path3904"
         inkscape:connector-curvature="0"
         sodipodi:nodetypes="sssscccccccsscsccsssscccccccccscccccccsscsccs" />
      <rect
         transform="matrix(0.70710678,0.70710678,-0.70710678,0.70710678,0,0)"
         y="-264.45795"
         x="346.48233"
         height="14.142131"
         width="14.14214"
         id="rect3922"
         style="opacity:0.4;fill:url(#linearGradient8621);fill-opacity:1;fill-rule:evenodd;stroke:none;display:inline;enable-background:new" />
      <path
         id="path3924"
         d="m 425,60 c -0.554,0 -1,0.446 -1,1 l 0,1 c 0,0.554 0.446,1 1,1 l 0,12 c 0,0.554 0.446,1 1,1 l 1.53125,0 c 0.0518,-0.01929 11.10608,-11.280857 12.78125,-13 0,0 0.6875,-0.446 0.6875,-1 l 0,-1 c 0,-0.554 -0.446,-1 -1,-1 l -5,0 c -0.554,0 -1,0.446 -1,1 l 0,1 c 0,0.543137 0.42989,0.98298 0.96875,1 l -4.5,4.5 c -0.0365,0.03667 -0.45395,0.54944 -0.46875,0.5 -0.002,-0.01 0,-0.59375 0,-0.59375 L 430,63 c 0.554,0 1,-0.446 1,-1 l 0,-1 c 0,-0.554 -0.446,-1 -1,-1 l -5,0 z"
         style="fill:#fefefe;fill-opacity:1;fill-rule:evenodd;stroke:none;display:inline;enable-background:new"
         inkscape:connector-curvature="0" />
      <rect
         style="opacity:0.4;fill:url(#linearGradient8625);fill-opacity:1;fill-rule:evenodd;stroke:none;display:inline;enable-background:new"
         id="rect3955"
         width="28.284281"
         height="28.284262"
         x="333.75439"
         y="-118.79394"
         transform="matrix(0.70710678,0.70710678,-0.70710678,0.70710678,0,0)" />
      <path
         inkscape:connector-curvature="0"
         style="fill:#fefefe;fill-opacity:1;fill-rule:evenodd;stroke:none;display:inline;enable-background:new"
         d="m 306,156 c -1.108,0 -2,0.892 -2,2 l 0,2 c 0,1.108 0.892,2 2,2 l 0,24 c 0,1.108 0.892,2 2,2 l 3.0625,0 c 0.1036,-0.0386 22.21216,-22.56171 25.5625,-26 0,0 1.375,-0.892 1.375,-2 l 0,-2 c 0,-1.108 -0.892,-2 -2,-2 l -10,0 c -1.108,0 -2,0.892 -2,2 l 0,2 c 0,1.08627 0.85978,1.96596 1.9375,2 l -9,9 c -0.073,0.0733 -0.9079,1.09888 -0.9375,1 -0.004,-0.02 0,-1.1875 0,-1.1875 L 316,162 c 1.108,0 2,-0.892 2,-2 l 0,-2 c 0,-1.108 -0.892,-2 -2,-2 l -10,0 z"
         id="path3957" />
      <rect
         style="opacity:0.4;fill:url(#linearGradient8629);fill-opacity:1;fill-rule:evenodd;stroke:none;display:inline;enable-background:new"
         id="rect3969"
         width="8.4852848"
         height="8.4852791"
         x="400.36386"
         y="-199.54553"
         transform="matrix(0.70710678,0.70710678,-0.70710678,0.70710678,0,0)" />
      <path
         sodipodi:nodetypes="sssscssccsssssssscccccsssss"
         inkscape:connector-curvature="0"
         id="path3971"
         d="M 419.46875,143 C 419.20855,143 419,143.20855 419,143.46875 l 0,1.0625 c 0,0.2602 0.20855,0.46875 0.46875,0.46875 l 0.53125,0 0,7.1875 c 0,0.3324 0.26135,0.625 0.59375,0.625 l 0.9375,0 c 0.0311,-0.0116 6.9949,-6.78101 8,-7.8125 l 0,0 c 0,0 0.46875,-0.20855 0.46875,-0.46875 l 0,-1.0625 C 430,143.20855 429.79145,143 429.53125,143 l -4.0625,0 C 425.20855,143 425,143.20855 425,143.46875 l 0,1.0625 c 0,0.2602 0.20855,0.46875 0.46875,0.46875 l 0.5,0 -2.6875,2.6875 c -0.0219,0.022 -0.27237,0.34216 -0.28125,0.3125 -10e-4,-0.006 0,-0.34375 0,-0.34375 L 423,145 l 0.53125,0 C 423.79145,145 424,144.79145 424,144.53125 l 0,-1.0625 C 424,143.20855 423.79145,143 423.53125,143 z"
         style="fill:#fefefe;fill-opacity:1;fill-rule:evenodd;stroke:none;display:inline;enable-background:new" />
    </g>
    <g
       inkscape:groupmode="layer"
       id="layer5"
       inkscape:label="Highlights"
       style="display:inline"
       sodipodi:insensitive="true">
      <path
         style="opacity:0.13000004;color:#bebebe;fill:#ffffff;fill-opacity:1;fill-rule:nonzero;stroke:none;stroke-width:0;marker:none;visibility:visible;display:inline;overflow:visible;enable-background:accumulate"
         d="M 84,47 C 56.836703,47 35,68.836703 35,96 l 0,1 C 35,69.836703 56.836703,48 84,48 l 120,0 c 27.1633,0 49,21.836703 49,49 l 0,-1 C 253,68.836703 231.1633,47 204,47 L 84,47 z"
         id="rect3894"
         inkscape:connector-curvature="0" />
      <path
         style="opacity:0.13000004;color:#bebebe;fill:#ffffff;fill-opacity:1;fill-rule:nonzero;stroke:none;stroke-width:0;marker:none;visibility:visible;display:inline;overflow:visible;enable-background:accumulate"
         d="m 419,141 c -1.1253,0 -2,0.8747 -2,2 l 0,1 c 0,-1.1253 0.8747,-2 2,-2 l 10,0 c 1.1253,0 2,0.8747 2,2 l 0,-1 c 0,-1.1253 -0.8747,-2 -2,-2 l -10,0 z"
         id="rect3896"
         inkscape:connector-curvature="0" />
      <path
         style="opacity:0.13000004;color:#bebebe;fill:#ffffff;fill-opacity:1;fill-rule:nonzero;stroke:none;stroke-width:0;marker:none;visibility:visible;display:inline;overflow:visible;enable-background:accumulate"
         d="m 422,102 c -2.2333,0 -4,1.7667 -4,4 l 0,1 c 0,-2.2333 1.7667,-4 4,-4 l 12,0 c 2.2333,0 4,1.7667 4,4 l 0,-1 c 0,-2.2333 -1.7667,-4 -4,-4 l -12,0 z"
         id="rect3898"
         inkscape:connector-curvature="0" />
      <path
         style="opacity:0.13000004;color:#bebebe;fill:#ffffff;fill-opacity:1;fill-rule:nonzero;stroke:none;stroke-width:0;marker:none;visibility:visible;display:inline;overflow:visible;enable-background:accumulate"
         d="m 424,54 c -3.3413,0 -6,2.658703 -6,6 l 0,1 c 0,-3.341297 2.6587,-6 6,-6 l 16,0 c 3.3413,0 6,2.658703 6,6 l 0,-1 c 0,-3.341297 -2.6587,-6 -6,-6 l -16,0 z"
         id="rect3900"
         inkscape:connector-curvature="0" />
      <path
         style="opacity:0.13000004;color:#bebebe;fill:#ffffff;fill-opacity:1;fill-rule:nonzero;stroke:none;stroke-width:0;marker:none;visibility:visible;display:inline;overflow:visible;enable-background:accumulate"
         d="m 300,224 c -4.4493,0 -8,3.5507 -8,8 l 0,1 c 0,-4.4493 3.5507,-8 8,-8 l 24,0 c 4.4493,0 8,3.5507 8,8 l 0,-1 c 0,-4.4493 -3.5507,-8 -8,-8 l -24,0 z"
         id="rect3902"
         inkscape:connector-curvature="0" />
      <path
         style="opacity:0.13000004;color:#bebebe;fill:#ffffff;fill-opacity:1;fill-rule:nonzero;stroke:none;stroke-width:0;marker:none;visibility:visible;display:inline;overflow:visible;enable-background:accumulate"
         d="m 310,33 c -9.4353,0 -17,7.564703 -17,17 l 0,1 c 0,-9.435297 7.5647,-17 17,-17 l 52,0 c 9.4353,0 17,7.564703 17,17 l 0,-1 c 0,-9.435297 -7.5647,-17 -17,-17 l -52,0 z"
         id="rect3904"
         inkscape:connector-curvature="0" />
      <path
         style="opacity:0.13000004;color:#bebebe;fill:#ffffff;fill-opacity:1;fill-rule:nonzero;stroke:none;stroke-width:0;marker:none;visibility:visible;display:inline;overflow:visible;enable-background:accumulate"
         d="m 302.5,143 c -6.3883,0 -11.5,5.1117 -11.5,11.5 l 0,1 c 0,-6.3883 5.1117,-11.5 11.5,-11.5 l 35,0 c 6.3883,0 11.5,5.1117 11.5,11.5 l 0,-1 c 0,-6.3883 -5.1117,-11.5 -11.5,-11.5 l -35,0 z"
         id="rect3906"
         inkscape:connector-curvature="0" />
      <path
         id="path4085"
         d="m 204,266 c 27.1633,0 49,-21.8367 49,-49 l 0,-1 c 0,27.1633 -21.8367,49 -49,49 L 84,265 C 56.8367,265 35,243.1633 35,216 l 0,1 c 0,27.1633 21.8367,49 49,49 l 120,0 z"
         style="opacity:0.41000001;color:#bebebe;fill:#000000;fill-opacity:1;fill-rule:nonzero;stroke:none;stroke-width:0;marker:none;visibility:visible;display:inline;overflow:visible;enable-background:accumulate"
         inkscape:connector-curvature="0" />
      <path
         id="path4087"
         d="m 429,156 c 1.1253,0 2,-0.8747 2,-2 l 0,-1 c 0,1.1253 -0.8747,2 -2,2 l -10,0 c -1.1253,0 -2,-0.8747 -2,-2 l 0,1 c 0,1.1253 0.8747,2 2,2 l 10,0 z"
         style="opacity:0.3;color:#bebebe;fill:#000000;fill-opacity:1;fill-rule:nonzero;stroke:none;stroke-width:0;marker:none;visibility:visible;display:inline;overflow:visible;enable-background:accumulate"
         inkscape:connector-curvature="0" />
      <path
         id="path4089"
         d="m 434,123 c 2.2333,0 4,-1.7667 4,-4 l 0,-1 c 0,2.2333 -1.7667,4 -4,4 l -12,0 c -2.2333,0 -4,-1.7667 -4,-4 l 0,1 c 0,2.2333 1.7667,4 4,4 l 12,0 z"
         style="opacity:0.3;color:#bebebe;fill:#000000;fill-opacity:1;fill-rule:nonzero;stroke:none;stroke-width:0;marker:none;visibility:visible;display:inline;overflow:visible;enable-background:accumulate"
         inkscape:connector-curvature="0" />
      <path
         id="path4091"
         d="m 440,83 c 3.3413,0 6,-2.6587 6,-6 l 0,-1 c 0,3.3413 -2.6587,6 -6,6 l -16,0 c -3.3413,0 -6,-2.6587 -6,-6 l 0,1 c 0,3.3413 2.6587,6 6,6 l 16,0 z"
         style="opacity:0.41000001;color:#bebebe;fill:#000000;fill-opacity:1;fill-rule:nonzero;stroke:none;stroke-width:0;marker:none;visibility:visible;display:inline;overflow:visible;enable-background:accumulate"
         inkscape:connector-curvature="0" />
      <path
         id="path4093"
         d="m 324,265 c 4.4493,0 8,-3.5507 8,-8 l 0,-1 c 0,4.4493 -3.5507,8 -8,8 l -24,0 c -4.4493,0 -8,-3.5507 -8,-8 l 0,1 c 0,4.4493 3.5507,8 8,8 l 24,0 z"
         style="opacity:0.41000001;color:#bebebe;fill:#000000;fill-opacity:1;fill-rule:nonzero;stroke:none;stroke-width:0;marker:none;visibility:visible;display:inline;overflow:visible;enable-background:accumulate"
         inkscape:connector-curvature="0" />
      <path
         id="path4095"
         d="m 362,120 c 9.4353,0 17,-7.5647 17,-17 l 0,-1 c 0,9.4353 -7.5647,17 -17,17 l -52,0 c -9.4353,0 -17,-7.5647 -17,-17 l 0,1 c 0,9.4353 7.5647,17 17,17 l 52,0 z"
         style="opacity:0.41000001;color:#bebebe;fill:#000000;fill-opacity:1;fill-rule:nonzero;stroke:none;stroke-width:0;marker:none;visibility:visible;display:inline;overflow:visible;enable-background:accumulate"
         inkscape:connector-curvature="0" />
      <path
         id="path4097"
         d="m 337.5,202 c 6.3883,0 11.5,-5.1117 11.5,-11.5 l 0,-1 c 0,6.3883 -5.1117,11.5 -11.5,11.5 l -35,0 c -6.3883,0 -11.5,-5.1117 -11.5,-11.5 l 0,1 c 0,6.3883 5.1117,11.5 11.5,11.5 l 35,0 z"
         style="opacity:0.41000001;color:#bebebe;fill:#000000;fill-opacity:1;fill-rule:nonzero;stroke:none;stroke-width:0;marker:none;visibility:visible;display:inline;overflow:visible;enable-background:accumulate"
         inkscape:connector-curvature="0" />
      <path
         inkscape:connector-curvature="0"
         id="path4280"
         d="M 84,265 C 56.836703,265 35,243.1633 35,216 l 0,-1 c 0,27.1633 21.836703,49 49,49 l 120,0 c 27.1633,0 49,-21.8367 49,-49 l 0,1 c 0,27.1633 -21.8367,49 -49,49 l -120,0 z"
         style="opacity:0.1;color:#bebebe;fill:#ffffff;fill-opacity:1;fill-rule:nonzero;stroke:none;stroke-width:0;marker:none;visibility:visible;display:inline;overflow:visible;enable-background:accumulate" />
      <path
         style="opacity:0.1;color:#bebebe;fill:#ffffff;fill-opacity:1;fill-rule:nonzero;stroke:none;stroke-width:0;marker:none;visibility:visible;display:inline;overflow:visible;enable-background:accumulate"
         d="m 300,264 c -4.4493,0 -8,-3.5507 -8,-8 l 0,-1 c 0,4.4493 3.5507,8 8,8 l 24,0 c 4.4493,0 8,-3.5507 8,-8 l 0,1 c 0,4.4493 -3.5507,8 -8,8 l -24,0 z"
         id="path4294"
         inkscape:connector-curvature="0" />
      <path
         style="opacity:0.1;color:#bebebe;fill:#ffffff;fill-opacity:1;fill-rule:nonzero;stroke:none;stroke-width:0;marker:none;visibility:visible;display:inline;overflow:visible;enable-background:accumulate"
         d="m 302.5,201 c -6.3883,0 -11.5,-5.1117 -11.5,-11.5 l 0,-1 c 0,6.3883 5.1117,11.5 11.5,11.5 l 35,0 c 6.3883,0 11.5,-5.1117 11.5,-11.5 l 0,1 c 0,6.3883 -5.1117,11.5 -11.5,11.5 l -35,0 z"
         id="path4296"
         inkscape:connector-curvature="0" />
      <path
         style="opacity:0.1;color:#bebebe;fill:#ffffff;fill-opacity:1;fill-rule:nonzero;stroke:none;stroke-width:0;marker:none;visibility:visible;display:inline;overflow:visible;enable-background:accumulate"
         d="m 310,119 c -9.4353,0 -17,-7.5647 -17,-17 l 0,-1 c 0,9.4353 7.5647,17 17,17 l 52,0 c 9.4353,0 17,-7.5647 17,-17 l 0,1 c 0,9.4353 -7.5647,17 -17,17 l -52,0 z"
         id="path4298"
         inkscape:connector-curvature="0" />
      <path
         style="opacity:0.1;color:#bebebe;fill:#ffffff;fill-opacity:1;fill-rule:nonzero;stroke:none;stroke-width:0;marker:none;visibility:visible;display:inline;overflow:visible;enable-background:accumulate"
         d="m 424,82 c -3.3413,0 -6,-2.658703 -6,-6 l 0,-1 c 0,3.341297 2.6587,6 6,6 l 16,0 c 3.3413,0 6,-2.658703 6,-6 l 0,1 c 0,3.341297 -2.6587,6 -6,6 l -16,0 z"
         id="path4300"
         inkscape:connector-curvature="0" />
      <path
         style="opacity:0.1;color:#bebebe;fill:#ffffff;fill-opacity:1;fill-rule:nonzero;stroke:none;stroke-width:0;marker:none;visibility:visible;display:inline;overflow:visible;enable-background:accumulate"
         d="m 422,122 c -2.2333,0 -4,-1.7667 -4,-4 l 0,-1 c 0,2.2333 1.7667,4 4,4 l 12,0 c 2.2333,0 4,-1.7667 4,-4 l 0,1 c 0,2.2333 -1.7667,4 -4,4 l -12,0 z"
         id="path4302"
         inkscape:connector-curvature="0" />
      <path
         style="opacity:0.1;color:#bebebe;fill:#ffffff;fill-opacity:1;fill-rule:nonzero;stroke:none;stroke-width:0;marker:none;visibility:visible;display:inline;overflow:visible;enable-background:accumulate"
         d="m 419,154.5 c -1.1253,0 -2,-0.8747 -2,-2 l 0,-1 c 0,1.1253 0.8747,2 2,2 l 10,0 c 1.1253,0 2,-0.8747 2,-2 l 0,1 c 0,1.1253 -0.8747,2 -2,2 l -10,0 z"
         id="path4304"
         inkscape:connector-curvature="0" />
    </g>
    <g
       inkscape:groupmode="layer"
       id="layer3"
       inkscape:label="Border"
       style="display:inline"
       sodipodi:insensitive="true">
      <path
         style="opacity:0.41000001;color:#bebebe;fill:#000000;fill-opacity:1;fill-rule:nonzero;stroke:none;stroke-width:0;marker:none;visibility:visible;display:inline;overflow:visible;enable-background:accumulate"
         d="m 422,101 c -2.77,0 -5,2.23 -5,5 l 0,12 c 0,2.77 2.23,5 5,5 l 12,0 c 2.77,0 5,-2.23 5,-5 l 0,-12 c 0,-2.77 -2.23,-5 -5,-5 l -12,0 z m 0,1 12,0 c 2.2333,0 4,1.7667 4,4 l 0,12 c 0,2.2333 -1.7667,4 -4,4 l -12,0 c -2.2333,0 -4,-1.7667 -4,-4 l 0,-12 c 0,-2.2333 1.7667,-4 4,-4 z"
         id="rect4099"
         inkscape:connector-curvature="0" />
      <path
         style="opacity:0.41000001;color:#bebebe;fill:#000000;fill-opacity:1;fill-rule:nonzero;stroke:none;stroke-width:0;marker:none;visibility:visible;display:inline;overflow:visible;enable-background:accumulate"
         d="m 424,53 c -3.878,0 -7,3.122 -7,7 l 0,16 c 0,3.878 3.122,7 7,7 l 16,0 c 3.878,0 7,-3.122 7,-7 l 0,-16 c 0,-3.878 -3.122,-7 -7,-7 l -16,0 z m 0,1 16,0 c 3.3413,0 6,2.658703 6,6 l 0,16 c 0,3.341297 -2.6587,6 -6,6 l -16,0 c -3.3413,0 -6,-2.658703 -6,-6 l 0,-16 c 0,-3.341297 2.6587,-6 6,-6 z"
         id="rect4151"
         inkscape:connector-curvature="0" />
      <path
         style="opacity:0.41000001;color:#bebebe;fill:#000000;fill-opacity:1;fill-rule:nonzero;stroke:none;stroke-width:0;marker:none;visibility:visible;display:inline;overflow:visible;enable-background:accumulate"
         d="m 419,140 c -1.662,0 -3,1.338 -3,3 l 0,10 c 0,1.662 1.338,3 3,3 l 10,0 c 1.662,0 3,-1.338 3,-3 l 0,-10 c 0,-1.662 -1.338,-3 -3,-3 l -10,0 z m 0,1 10,0 c 1.1253,0 2,0.8747 2,2 l 0,10 c 0,1.1253 -0.8747,2 -2,2 l -10,0 c -1.1253,0 -2,-0.8747 -2,-2 l 0,-10 c 0,-1.1253 0.8747,-2 2,-2 z"
         id="rect4095"
         inkscape:connector-curvature="0" />
      <path
         style="opacity:0.41000001;color:#bebebe;fill:#000000;fill-opacity:1;fill-rule:nonzero;stroke:none;stroke-width:0;marker:none;visibility:visible;display:inline;overflow:visible;enable-background:accumulate"
         d="m 300,223 c -4.986,0 -9,4.014 -9,9 l 0,24 c 0,4.986 4.014,9 9,9 l 24,0 c 4.986,0 9,-4.014 9,-9 l 0,-24 c 0,-4.986 -4.014,-9 -9,-9 l -24,0 z m 0,1 24,0 c 4.4493,0 8,3.5507 8,8 l 0,24 c 0,4.4493 -3.5507,8 -8,8 l -24,0 c -4.4493,0 -8,-3.5507 -8,-8 l 0,-24 c 0,-4.4493 3.5507,-8 8,-8 z"
         id="rect4783"
         inkscape:connector-curvature="0" />
      <path
         style="opacity:0.41000001;color:#bebebe;fill:#000000;fill-opacity:1;fill-rule:nonzero;stroke:none;stroke-width:0;marker:none;visibility:visible;display:inline;overflow:visible;enable-background:accumulate"
         d="m 302.5,142 c -6.925,0 -12.5,5.575 -12.5,12.5 l 0,35 c 0,6.925 5.575,12.5 12.5,12.5 l 35,0 c 6.925,0 12.5,-5.575 12.5,-12.5 l 0,-35 c 0,-6.925 -5.575,-12.5 -12.5,-12.5 l -35,0 z m 0,1 35,0 c 6.3883,0 11.5,5.1117 11.5,11.5 l 0,35 c 0,6.3883 -5.1117,11.5 -11.5,11.5 l -35,0 c -6.3883,0 -11.5,-5.1117 -11.5,-11.5 l 0,-35 c 0,-6.3883 5.1117,-11.5 11.5,-11.5 z"
         id="rect4515"
         inkscape:connector-curvature="0" />
      <path
         style="opacity:0.41000001;color:#bebebe;fill:#000000;fill-opacity:1;fill-rule:nonzero;stroke:none;stroke-width:0;marker:none;visibility:visible;display:inline;overflow:visible;enable-background:accumulate"
         d="m 310,32 c -9.972,0 -18,8.028 -18,18 l 0,52 c 0,9.972 8.028,18 18,18 l 52,0 c 9.972,0 18,-8.028 18,-18 l 0,-52 c 0,-9.972 -8.028,-18 -18,-18 l -52,0 z m 0,1 52,0 c 9.4353,0 17,7.564703 17,17 l 0,52 c 0,9.4353 -7.5647,17 -17,17 l -52,0 c -9.4353,0 -17,-7.5647 -17,-17 l 0,-52 c 0,-9.435297 7.5647,-17 17,-17 z"
         id="rect4511"
         inkscape:connector-curvature="0" />
      <path
         style="opacity:0.41000001;color:#bebebe;fill:#000000;fill-opacity:1;fill-rule:nonzero;stroke:none;stroke-width:0;marker:none;visibility:visible;display:inline;overflow:visible;enable-background:accumulate"
         d="M 84,46 C 56.3,46 34,68.3 34,96 l 0,120 c 0,27.7 22.3,50 50,50 l 120,0 c 27.7,0 50,-22.3 50,-50 L 254,96 C 254,68.3 231.7,46 204,46 L 84,46 z m 0,1 120,0 c 27.1633,0 49,21.836703 49,49 l 0,120 c 0,27.1633 -21.8367,49 -49,49 L 84,265 C 56.836703,265 35,243.1633 35,216 L 35,96 C 35,68.836703 56.836703,47 84,47 z"
         id="rect4040"
         inkscape:connector-curvature="0" />
    </g>
  </g>
</svg>
